<svg xmlns="http://www.w3.org/2000/svg" viewBox="0 0 713.56 739.38">
    <g data-name="Layer 2">
        <path d="M152.03 4.5H4.53l1 149.5m556-149.5h147.5l-1 149.5m-146.5 580.88h147.5l-1-149.5m-556 149.49H4.53l1-149.49" fill="none" stroke="#ff6b00" stroke-miterlimit="10" stroke-width="9" data-name="Layer 1"/>
    </g>
</svg>
