<svg data-name="Layer 1" xmlns="http://www.w3.org/2000/svg" viewBox="0 0 204 204.33">
    <path class="cls-1" d="M84.18 85.06v33.61m36-76.17l-.17 79.17M155.43 82l-.17 52.83M52.17 45.39l-.22 89.11"/>
    <path class="cls-2" d="M45.12 42.56h32.67m33.77.55h32.67"/>
    <path class="cls-3" d="M155.84 123l-104.5.17v-11l104.5-.17v11zm.17 14.17l-104.5.16v-11l104.5-.16v11zM64.05 34.44a7.22 7.22 0 014.48 1.38 4.78 4.78 0 011.7 3.75q0 3.8-3.91 7.11a13 13 0 01-8.5 3.32 7.16 7.16 0 01-4.46-1.38 4.73 4.73 0 01-1.72-3.75q0-3.8 4-7.11a12.67 12.67 0 018.43-3.31m67.98-1.18a7.22 7.22 0 014.48 1.38 4.78 4.78 0 011.7 3.75q0 3.81-3.91 7.11a13 13 0 01-8.5 3.31 7.22 7.22 0 01-4.46-1.37 4.76 4.76 0 01-1.72-3.75q0-3.81 4-7.12a12.72 12.72 0 018.43-3.31m-36.52 41.5a7.22 7.22 0 014.45 1.38 4.78 4.78 0 011.7 3.75q0 3.81-3.91 7.11a13 13 0 01-8.5 3.31A7.22 7.22 0 0184.86 89a4.76 4.76 0 01-1.72-3.75q0-3.81 4-7.12a12.72 12.72 0 018.43-3.31m70.98-2.71a7.21 7.21 0 014.45 1.37 4.8 4.8 0 011.7 3.75q0 3.81-3.91 7.12a13.09 13.09 0 01-8.5 3.31 7.16 7.16 0 01-4.46-1.38 4.75 4.75 0 01-1.72-3.75q0-3.81 4-7.11a12.67 12.67 0 018.43-3.31"/>
</svg>
