<svg id="Layer_1" data-name="Layer 1" xmlns="http://www.w3.org/2000/svg" viewBox="0 0 204 204.33">
    <defs>
        <style>
            .cls-1{fill:#fff}
        </style>
    </defs>
    <path class="cls-1" d="M154.54 113.83l-104.17.34v-11l104.17-.34v11zm.17 14.17l-104.17.33v-11l104.17-.33v11z"/>
    <path d="M51.32 43.06l-.17 84m68.67-82.67l-.17 65.78M86.68 76.54l-.22 34.63m67.72-32.46l-.22 42.96" fill="none" stroke="#fff" stroke-miterlimit="10"/>
    <path d="M43.87 42.36h32.67m34.5.67h32.67" stroke-width="2" fill="none" stroke="#fff" stroke-miterlimit="10"/>
    <path class="cls-1" d="M63.08 33.94a7.22 7.22 0 014.48 1.38 4.78 4.78 0 011.7 3.75q0 3.8-3.91 7.11a13 13 0 01-8.5 3.31 7.16 7.16 0 01-4.46-1.38 4.76 4.76 0 01-1.72-3.75q0-3.8 4-7.11a12.67 12.67 0 018.43-3.31m34.15 32.83a7.22 7.22 0 014.48 1.38 4.78 4.78 0 011.7 3.75q0 3.81-3.91 7.11A13 13 0 0191 82.32 7.25 7.25 0 0186.55 81a4.78 4.78 0 01-1.71-3.75c0-2.54 1.33-4.91 4-7.12a12.75 12.75 0 018.44-3.31m33.8-32.05a7.22 7.22 0 014.48 1.38 4.78 4.78 0 011.7 3.75q0 3.81-3.91 7.11a13 13 0 01-8.5 3.31 7.22 7.22 0 01-4.46-1.32 4.79 4.79 0 01-1.72-3.75q0-3.81 4-7.12a12.72 12.72 0 018.43-3.31m33.32 32.79a7.2 7.2 0 014.47 1.39 4.78 4.78 0 011.71 3.75c0 2.54-1.31 4.91-3.91 7.12a13.11 13.11 0 01-8.5 3.31 7.17 7.17 0 01-4.47-1.38A4.77 4.77 0 01152 78q0-3.81 4-7.11a12.7 12.7 0 018.44-3.31"/>
</svg>
